4_year/Tech_proekt_comp_syst/4_lab/simulation/qsim/main.msim.vcd
$comment
	File created using the following command:
		vcd file main.msim.vcd -direction
$end
$date
	Wed Nov 24 10:04:09 2021
$end
$version
	ModelSim Version 10.1d
$end
$timescale
	1ps
$end
$scope module main_vlg_vec_tst $end
$var reg 4 ! bin [3:0] $end
$var reg 1 " clock $end
$var reg 1 # clock11 $end
$var reg 1 $ clock17 $end
$var reg 1 % clock19 $end
$var reg 1 & reset $end
$var reg 1 ' reset12 $end
$var reg 1 ( reset18 $end
$var reg 1 ) reset20 $end
$var wire 1 * overflow $end
$var wire 1 + Q [3] $end
$var wire 1 , Q [2] $end
$var wire 1 - Q [1] $end
$var wire 1 . Q [0] $end
$var wire 1 / Q13 [3] $end
$var wire 1 0 Q13 [2] $end
$var wire 1 1 Q13 [1] $end
$var wire 1 2 Q13 [0] $end
$var wire 1 3 Q16 [3] $end
$var wire 1 4 Q16 [2] $end
$var wire 1 5 Q16 [1] $end
$var wire 1 6 Q16 [0] $end
$var wire 1 7 sseg [6] $end
$var wire 1 8 sseg [5] $end
$var wire 1 9 sseg [4] $end
$var wire 1 : sseg [3] $end
$var wire 1 ; sseg [2] $end
$var wire 1 < sseg [1] $end
$var wire 1 = sseg [0] $end
$var wire 1 > sampler $end
$scope module i1 $end
$var wire 1 ? gnd $end
$var wire 1 @ vcc $end
$var wire 1 A unknown $end
$var tri1 1 B devclrn $end
$var tri1 1 C devpor $end
$var tri1 1 D devoe $end
$var wire 1 E inst|Add0~2_combout $end
$var wire 1 F inst|Add0~4_combout $end
$var wire 1 G inst|Add0~8_combout $end
$var wire 1 H inst|Add0~34_combout $end
$var wire 1 I inst|Add0~36_combout $end
$var wire 1 J inst|Add0~38_combout $end
$var wire 1 K inst|Add0~47 $end
$var wire 1 L inst|Add0~48_combout $end
$var wire 1 M inst|Equal0~1_combout $end
$var wire 1 N inst|Equal0~6_combout $end
$var wire 1 O inst|mem~0_combout $end
$var wire 1 P inst|mem~3_combout $end
$var wire 1 Q inst|mem~4_combout $end
$var wire 1 R clock~combout $end
$var wire 1 S clock~clkctrl_outclk $end
$var wire 1 T inst|Add0~0_combout $end
$var wire 1 U reset~combout $end
$var wire 1 V reset~clkctrl_outclk $end
$var wire 1 W inst|Add0~1 $end
$var wire 1 X inst|Add0~3 $end
$var wire 1 Y inst|Add0~5 $end
$var wire 1 Z inst|Add0~6_combout $end
$var wire 1 [ inst|Add0~7 $end
$var wire 1 \ inst|Add0~9 $end
$var wire 1 ] inst|Add0~10_combout $end
$var wire 1 ^ inst|Add0~11 $end
$var wire 1 _ inst|Add0~12_combout $end
$var wire 1 ` inst|mem~13_combout $end
$var wire 1 a inst|Add0~13 $end
$var wire 1 b inst|Add0~14_combout $end
$var wire 1 c inst|mem~12_combout $end
$var wire 1 d inst|Add0~15 $end
$var wire 1 e inst|Add0~16_combout $end
$var wire 1 f inst|Equal0~5_combout $end
$var wire 1 g inst|Add0~17 $end
$var wire 1 h inst|Add0~18_combout $end
$var wire 1 i inst|Add0~19 $end
$var wire 1 j inst|Add0~21 $end
$var wire 1 k inst|Add0~22_combout $end
$var wire 1 l inst|mem~10_combout $end
$var wire 1 m inst|Add0~23 $end
$var wire 1 n inst|Add0~24_combout $end
$var wire 1 o inst|mem~9_combout $end
$var wire 1 p inst|Add0~25 $end
$var wire 1 q inst|Add0~26_combout $end
$var wire 1 r inst|mem~8_combout $end
$var wire 1 s inst|Add0~27 $end
$var wire 1 t inst|Add0~28_combout $end
$var wire 1 u inst|mem~7_combout $end
$var wire 1 v inst|Add0~29 $end
$var wire 1 w inst|Add0~30_combout $end
$var wire 1 x inst|mem~6_combout $end
$var wire 1 y inst|Add0~31 $end
$var wire 1 z inst|Add0~32_combout $end
$var wire 1 { inst|mem~5_combout $end
$var wire 1 | inst|Equal0~2_combout $end
$var wire 1 } inst|Add0~33 $end
$var wire 1 ~ inst|Add0~35 $end
$var wire 1 !! inst|Add0~37 $end
$var wire 1 "! inst|Add0~39 $end
$var wire 1 #! inst|Add0~40_combout $end
$var wire 1 $! inst|mem~2_combout $end
$var wire 1 %! inst|Add0~41 $end
$var wire 1 &! inst|Add0~42_combout $end
$var wire 1 '! inst|Add0~43 $end
$var wire 1 (! inst|Add0~44_combout $end
$var wire 1 )! inst|Add0~45 $end
$var wire 1 *! inst|Add0~46_combout $end
$var wire 1 +! inst|mem~1_combout $end
$var wire 1 ,! inst|Equal0~0_combout $end
$var wire 1 -! inst|Add0~20_combout $end
$var wire 1 .! inst|mem~11_combout $end
$var wire 1 /! inst|Equal0~3_combout $end
$var wire 1 0! inst|Equal0~4_combout $end
$var wire 1 1! inst|Equal0~7_combout $end
$var wire 1 2! inst|overflow~regout $end
$var wire 1 3! clock17~combout $end
$var wire 1 4! clock17~clkctrl_outclk $end
$var wire 1 5! inst2|mem[0]~3_combout $end
$var wire 1 6! reset18~combout $end
$var wire 1 7! reset18~clkctrl_outclk $end
$var wire 1 8! inst2|mem~2_combout $end
$var wire 1 9! inst2|mem~0_combout $end
$var wire 1 :! inst2|mem[2]~1_combout $end
$var wire 1 ;! clock11~combout $end
$var wire 1 <! clock11~clkctrl_outclk $end
$var wire 1 =! inst3|mem~2_combout $end
$var wire 1 >! reset12~combout $end
$var wire 1 ?! reset12~clkctrl_outclk $end
$var wire 1 @! inst3|mem[2]~1_combout $end
$var wire 1 A! inst3|mem~3_combout $end
$var wire 1 B! inst3|mem[3]~0_combout $end
$var wire 1 C! clock19~combout $end
$var wire 1 D! clock19~clkctrl_outclk $end
$var wire 1 E! inst4|mem[0]~3_combout $end
$var wire 1 F! reset20~combout $end
$var wire 1 G! reset20~clkctrl_outclk $end
$var wire 1 H! inst4|mem~1_combout $end
$var wire 1 I! inst4|mem[3]~0_combout $end
$var wire 1 J! inst4|mem~2_combout $end
$var wire 1 K! inst1|Mux0~0_combout $end
$var wire 1 L! inst1|Mux1~0_combout $end
$var wire 1 M! inst1|Mux2~0_combout $end
$var wire 1 N! inst1|Mux3~0_combout $end
$var wire 1 O! inst1|Mux4~0_combout $end
$var wire 1 P! inst1|Mux5~0_combout $end
$var wire 1 Q! inst1|Mux6~0_combout $end
$var wire 1 R! inst|mem [24] $end
$var wire 1 S! inst|mem [23] $end
$var wire 1 T! inst|mem [22] $end
$var wire 1 U! inst|mem [21] $end
$var wire 1 V! inst|mem [20] $end
$var wire 1 W! inst|mem [19] $end
$var wire 1 X! inst|mem [18] $end
$var wire 1 Y! inst|mem [17] $end
$var wire 1 Z! inst|mem [16] $end
$var wire 1 [! inst|mem [15] $end
$var wire 1 \! inst|mem [14] $end
$var wire 1 ]! inst|mem [13] $end
$var wire 1 ^! inst|mem [12] $end
$var wire 1 _! inst|mem [11] $end
$var wire 1 `! inst|mem [10] $end
$var wire 1 a! inst|mem [9] $end
$var wire 1 b! inst|mem [8] $end
$var wire 1 c! inst|mem [7] $end
$var wire 1 d! inst|mem [6] $end
$var wire 1 e! inst|mem [5] $end
$var wire 1 f! inst|mem [4] $end
$var wire 1 g! inst|mem [3] $end
$var wire 1 h! inst|mem [2] $end
$var wire 1 i! inst|mem [1] $end
$var wire 1 j! inst|mem [0] $end
$var wire 1 k! inst2|mem [3] $end
$var wire 1 l! inst2|mem [2] $end
$var wire 1 m! inst2|mem [1] $end
$var wire 1 n! inst2|mem [0] $end
$var wire 1 o! inst3|mem [3] $end
$var wire 1 p! inst3|mem [2] $end
$var wire 1 q! inst3|mem [1] $end
$var wire 1 r! inst3|mem [0] $end
$var wire 1 s! inst4|mem [3] $end
$var wire 1 t! inst4|mem [2] $end
$var wire 1 u! inst4|mem [1] $end
$var wire 1 v! inst4|mem [0] $end
$var wire 1 w! bin~combout [3] $end
$var wire 1 x! bin~combout [2] $end
$var wire 1 y! bin~combout [1] $end
$var wire 1 z! bin~combout [0] $end
$upscope $end
$upscope $end
$enddefinitions $end
#0
$dumpvars
bx !
x"
0#
0$
0%
x&
0'
0(
0)
x*
x.
x-
x,
x+
x2
x1
x0
x/
x6
x5
x4
x3
x=
x<
x;
x:
x9
x8
x7
x>
0?
1@
xA
1B
1C
1D
xE
xF
xG
xH
xI
xJ
xK
xL
xM
xN
xO
xP
xQ
xR
xS
xT
xU
xV
xW
xX
xY
xZ
x[
x\
x]
x^
x_
x`
xa
xb
xc
xd
xe
xf
xg
xh
xi
xj
xk
xl
xm
xn
xo
xp
xq
xr
xs
xt
xu
xv
xw
xx
xy
xz
x{
x|
x}
x~
x!!
x"!
x#!
x$!
x%!
x&!
x'!
x(!
x)!
x*!
x+!
x,!
x-!
x.!
x/!
x0!
x1!
x2!
03!
x4!
x5!
06!
x7!
x8!
x9!
x:!
0;!
x<!
x=!
0>!
x?!
x@!
xA!
xB!
0C!
xD!
xE!
0F!
xG!
xH!
xI!
xJ!
xK!
xL!
xM!
xN!
xO!
xP!
xQ!
xj!
xi!
xh!
xg!
xf!
xe!
xd!
xc!
xb!
xa!
x`!
x_!
x^!
x]!
x\!
x[!
xZ!
xY!
xX!
xW!
xV!
xU!
xT!
xS!
xR!
xn!
xm!
xl!
xk!
xr!
xq!
xp!
xo!
xv!
xu!
xt!
xs!
xz!
xy!
xx!
xw!
$end
#113
0<!
#118
04!
07!
0?!
0D!
0G!
#218
02!
0R!
0W!
0Y!
0X!
0f!
0h!
0i!
0j!
0g!
0e!
0d!
0c!
0b!
0a!
0_!
0^!
0]!
0\!
0[!
0Z!
0V!
0U!
0T!
0S!
0`!
0n!
0m!
0k!
0l!
0q!
0p!
0r!
0o!
0v!
0t!
0s!
0u!
#541
1E!
15!
#673
0f
#677
0|
#682
0N
#688
0:!
#689
09!
#690
0B!
#692
08!
#696
0H!
0J!
#918
1i
#924
1d
1'!
0M
#928
1^
#929
0W
1K
#931
0%!
#938
0a
#947
0I!
#951
0/!
#954
0!!
#956
1T
#964
0Y
0)!
#965
1X
#966
0\
#967
0g
#989
0j
#991
0=!
0@!
#997
1A!
#1017
1[
#1097
1~
#1101
0p
#1105
1y
#1107
0}
#1111
1s
0v
#1171
0,!
#1228
1"!
#1319
00!
#1334
0(!
0e
#1338
0_
#1339
0L
0E
#1341
0&!
#1348
0b
#1364
0J
#1374
0*!
0Z
#1375
0F
#1376
0]
#1377
0-!
0h
#1397
01!
#1399
0k
#1427
0G
#1471
1m
#1507
0I
#1511
0q
#1515
0z
#1517
0H
#1521
0w
0t
#1638
0#!
#1767
0+!
#1869
0O
#1880
0`
#1881
0n
#2028
0c
#2043
0P
#2100
0r
#2109
0u
#2110
0x
#2170
0$!
#2235
0Q
#2236
0{
#2459
0.!
#2487
0l
#2600
0o
#3351
03
#3352
06
05
#3373
04
#3374
0*
#3376
00
#3414
0/
#3424
02
#3547
01
#3635
0-
#3658
0,
#3699
0.
#3907
0+
#5000
1#
1$
1%
0>
#5979
1C!
#5999
13!
1;!
#6097
1D!
#6112
1<!
#6117
14!
#7888
1v!
#7908
1r!
#7947
1n!
#8211
0E!
#8231
0A!
#8270
05!
#8366
1J!
#8421
18!
#8681
1=!
#10000
0#
0$
0%
1>
#10979
0C!
#10999
03!
0;!
#11022
16
#11097
0D!
#11112
0<!
#11114
12
#11117
04!
#11428
1.
#15000
1#
1$
1%
0>
#15979
1C!
#15999
13!
1;!
#16097
1D!
#16112
1<!
#16117
14!
#17888
0v!
1u!
#17908
1q!
0r!
#17947
0n!
1m!
#18211
0J!
1E!
#18231
1A!
0=!
#18270
08!
15!
#18366
1J!
#18421
18!
#18687
0A!
#20000
0#
0$
0%
1>
#20979
0C!
#20999
03!
0;!
#21022
06
15
#21097
0D!
#21112
0<!
#21114
02
#21117
04!
#21237
11
#21364
1-
#21428
0.
#25000
1#
1$
1%
0>
#25979
1C!
#25999
13!
1;!
#26097
1D!
#26112
1<!
#26117
14!
#27888
1v!
#27908
0q!
#27947
1n!
#28211
0E!
#28270
05!
#28366
1H!
0J!
#28421
08!
#28687
1A!
#28696
1:!
#30000
0#
0$
0%
1>
#30979
0C!
#30999
03!
0;!
#31022
16
#31097
0D!
#31112
0<!
#31117
04!
#31237
01
#31428
1.
#35000
1#
1$
1%
0>
#35979
1C!
#35999
13!
1;!
#36097
1D!
#36112
1<!
#36117
14!
#37888
0v!
1t!
0u!
#37908
1r!
#37947
0n!
0m!
1l!
#38211
1J!
0H!
1E!
#38231
0A!
#38270
18!
15!
#38366
1H!
0J!
#38421
08!
#38681
1=!
#40000
0#
0$
0%
1>
#40979
0C!
#40999
03!
0;!
#41022
06
05
#41043
14
#41097
0D!
#41112
0<!
#41114
12
#41117
04!
#41364
0-
#41387
1,
#41428
0.
#45000
1#
1$
1%
0>
#45979
1C!
#45999
13!
1;!
#46097
1D!
#46112
1<!
#46117
14!
#47888
1v!
#47908
1q!
0r!
#47947
1n!
#48211
0E!
#48231
1A!
0=!
#48270
05!
#48366
0H!
#48421
18!
#48687
0A!
#50000
0#
0$
0%
1>
#50979
0C!
#50999
03!
0;!
#51022
16
#51097
0D!
#51112
0<!
#51114
02
#51117
04!
#51237
11
#51428
1.
#55000
1#
1$
1%
0>
#55979
1C!
#55999
13!
1;!
#56097
1D!
#56112
1<!
#56117
14!
#57888
0v!
0t!
#57908
0q!
#57947
0n!
1m!
#58211
1E!
#58270
08!
15!
#58421
18!
#58687
1A!
#60000
0#
0$
0%
1>
#60979
0C!
#60999
03!
0;!
#61022
06
#61043
04
#61097
0D!
#61112
0<!
#61117
04!
#61237
01
#61364
1-
#61428
0.
#65000
1#
1$
1%
0>
#65979
1C!
#65999
13!
1;!
#66097
1D!
#66112
1<!
#66117
14!
#67888
1v!
#67908
1r!
#67947
1n!
#68211
0E!
#68231
0A!
#68270
05!
#68366
1J!
#68421
08!
#68681
1=!
#68695
19!
#68696
0:!
#70000
0#
0$
0%
1>
#70979
0C!
#70999
03!
0;!
#71022
16
#71097
0D!
#71112
0<!
#71114
12
#71117
04!
#71428
1.
#75000
1#
1$
1%
0>
#75979
1C!
#75999
13!
1;!
#76097
1D!
#76112
1<!
#76117
14!
#77888
0v!
1u!
#77908
1q!
0r!
#77947
0n!
0m!
1k!
0l!
#78211
0J!
1E!
#78231
1A!
0=!
#78270
18!
15!
#78366
1J!
#78421
08!
#78687
0A!
#80000
0#
0$
0%
1>
#80979
0C!
#80999
03!
0;!
#81022
06
15
#81097
0D!
#81112
0<!
#81114
02
#81117
04!
#81237
11
#81364
0-
#81387
0,
#81428
0.
#81636
1+
#85000
1#
1$
1%
0>
#85979
1C!
#85999
13!
1;!
#86097
1D!
#86112
1<!
#86117
14!
#87888
1v!
#87908
0q!
#87947
1n!
#88211
0E!
#88270
05!
#88366
1H!
0J!
#88687
1A!
#88695
09!
#90000
0#
0$
0%
1>
#90979
0C!
#90999
03!
0;!
#91022
16
#91097
0D!
#91112
0<!
#91117
04!
#91237
01
#91428
1.
#95000
1#
1$
1%
0>
#95979
1C!
#95999
13!
1;!
#96097
1D!
#96112
1<!
#96117
14!
#97888
0v!
1t!
0u!
#97908
1r!
#97947
0n!
0k!
#98211
1J!
0H!
1E!
#98231
0A!
#98270
15!
#98366
1H!
0J!
#98681
1=!
#100000
0#
0$
0%
1>
#100979
0C!
#100999
03!
0;!
#101022
06
05
#101043
14
#101097
0D!
#101112
0<!
#101114
12
#101117
04!
#101428
0.
#101636
0+
#105000
1#
1$
1%
0>
#105979
1C!
#105999
13!
1;!
#106097
1D!
#106112
1<!
#106117
14!
#107888
1v!
#107908
1q!
0r!
#107947
1n!
#108211
0E!
#108231
1A!
0=!
#108270
05!
#108366
0H!
#108421
18!
#108687
0A!
#110000
0#
0$
0%
1>
#110979
0C!
#110999
03!
0;!
#111022
16
#111097
0D!
#111112
0<!
#111114
02
#111117
04!
#111237
11
#111428
1.
#115000
1#
1$
1%
0>
#115979
1C!
#115999
13!
1;!
#116097
1D!
#116112
1<!
#116117
14!
#117888
0v!
0t!
#117908
0q!
#117947
0n!
1m!
#118211
1E!
#118270
08!
15!
#118421
18!
#118687
1A!
#120000
0#
0$
0%
1>
#120979
0C!
#120999
03!
0;!
#121022
06
#121043
04
#121097
0D!
#121112
0<!
#121117
04!
#121237
01
#121364
1-
#121428
0.
#125000
1#
1$
1%
0>
#125979
1C!
#125999
13!
1;!
#126097
1D!
#126112
1<!
#126117
14!
#127888
1v!
#127908
1r!
#127947
1n!
#128211
0E!
#128231
0A!
#128270
05!
#128366
1J!
#128421
08!
#128681
1=!
#128696
1:!
#130000
0#
0$
0%
1>
#130979
0C!
#130999
03!
0;!
#131022
16
#131097
0D!
#131112
0<!
#131114
12
#131117
04!
#131428
1.
#135000
1#
1$
1%
0>
#135979
1C!
#135999
13!
1;!
#136097
1D!
#136112
1<!
#136117
14!
#137888
0v!
1u!
#137908
1q!
0r!
#137947
0n!
0m!
1l!
#138211
0J!
1E!
#138231
1A!
0=!
#138270
18!
15!
#138366
1J!
#138421
08!
#138687
0A!
#140000
0#
0$
0%
1>
#140979
0C!
#140999
03!
0;!
#141022
06
15
#141097
0D!
#141112
0<!
#141114
02
#141117
04!
#141237
11
#141364
0-
#141387
1,
#141428
0.
#145000
1#
1$
1%
0>
#145979
1C!
#145999
13!
1;!
#146097
1D!
#146112
1<!
#146117
14!
#147888
1v!
#147908
0q!
#147947
1n!
#148211
0E!
#148270
05!
#148366
1H!
0J!
#148421
18!
#148687
1A!
#150000
0#
0$
0%
1>
#150979
0C!
#150999
03!
0;!
#151022
16
#151097
0D!
#151112
0<!
#151117
04!
#151237
01
#151428
1.
#155000
1#
1$
1%
0>
#155979
1C!
#155999
13!
1;!
#156097
1D!
#156112
1<!
#156117
14!
#157888
0v!
1t!
0u!
#157908
1r!
#157947
0n!
1m!
#158211
1J!
0H!
1E!
#158231
0A!
#158270
08!
15!
#158366
1H!
0J!
#158421
18!
#158681
1=!
#160000
0#
0$
0%
1>
#160979
0C!
#160999
03!
0;!
#161022
06
05
#161043
14
#161097
0D!
#161112
0<!
#161114
12
#161117
04!
#161364
1-
#161428
0.
#165000
1#
1$
1%
0>
#165979
1C!
#165999
13!
1;!
#166097
1D!
#166112
1<!
#166117
14!
#167888
1v!
#167908
1q!
0r!
#167947
1n!
#168211
0E!
#168231
1A!
0=!
#168270
05!
#168366
0H!
#168421
08!
#168687
0A!
#168695
19!
#168696
0:!
#170000
0#
0$
0%
1>
#170979
0C!
#170999
03!
0;!
#171022
16
#171097
0D!
#171112
0<!
#171114
02
#171117
04!
#171237
11
#171428
1.
#175000
1#
1$
1%
0>
#175979
1C!
#175999
13!
1;!
#176097
1D!
#176112
1<!
#176117
14!
#177888
0v!
0t!
#177908
0q!
#177947
0n!
0m!
1k!
0l!
#178211
1E!
#178270
18!
15!
#178421
08!
#178687
1A!
#180000
0#
0$
0%
1>
#180979
0C!
#180999
03!
0;!
#181022
06
#181043
04
#181097
0D!
#181112
0<!
#181117
04!
#181237
01
#181364
0-
#181387
0,
#181428
0.
#181636
1+
#185000
1#
1$
1%
0>
#185979
1C!
#185999
13!
1;!
#186097
1D!
#186112
1<!
#186117
14!
#187888
1v!
#187908
1r!
#187947
1n!
#188211
0E!
#188231
0A!
#188270
05!
#188366
1J!
#188681
1=!
#188695
09!
#190000
0#
0$
0%
1>
#190979
0C!
#190999
03!
0;!
#191022
16
#191097
0D!
#191112
0<!
#191114
12
#191117
04!
#191428
1.
#195000
1#
1$
1%
0>
#195979
1C!
#195999
13!
1;!
#196097
1D!
#196112
1<!
#196117
14!
#197888
0v!
1u!
#197908
1q!
0r!
#197947
0n!
0k!
#198211
0J!
1E!
#198231
1A!
0=!
#198270
15!
#198366
1J!
#198687
0A!
#200000
0#
0$
0%
1>
#200979
0C!
#200999
03!
0;!
#201022
06
15
#201097
0D!
#201112
0<!
#201114
02
#201117
04!
#201237
11
#201428
0.
#201636
0+
#205000
1#
1$
1%
0>
#205979
1C!
#205999
13!
1;!
#206097
1D!
#206112
1<!
#206117
14!
#207888
1v!
#207908
0q!
#207947
1n!
#208211
0E!
#208270
05!
#208366
1H!
0J!
#208421
18!
#208687
1A!
#210000
0#
0$
0%
1>
#210979
0C!
#210999
03!
0;!
#211022
16
#211097
0D!
#211112
0<!
#211117
04!
#211237
01
#211428
1.
#215000
1#
1$
1%
0>
#215979
1C!
#215999
13!
1;!
#216097
1D!
#216112
1<!
#216117
14!
#217888
0v!
1t!
0u!
#217908
1r!
#217947
0n!
1m!
#218211
1J!
0H!
1E!
#218231
0A!
#218270
08!
15!
#218366
1H!
0J!
#218421
18!
#218681
1=!
#220000
0#
0$
0%
1>
#220979
0C!
#220999
03!
0;!
#221022
06
05
#221043
14
#221097
0D!
#221112
0<!
#221114
12
#221117
04!
#221364
1-
#221428
0.
#225000
1#
1$
1%
0>
#225979
1C!
#225999
13!
1;!
#226097
1D!
#226112
1<!
#226117
14!
#227888
1v!
#227908
1q!
0r!
#227947
1n!
#228211
0E!
#228231
1A!
0=!
#228270
05!
#228366
0H!
#228421
08!
#228687
0A!
#228696
1:!
#230000
0#
0$
0%
1>
#230979
0C!
#230999
03!
0;!
#231022
16
#231097
0D!
#231112
0<!
#231114
02
#231117
04!
#231237
11
#231428
1.
#235000
1#
1$
1%
0>
#235979
1C!
#235999
13!
1;!
#236097
1D!
#236112
1<!
#236117
14!
#237888
0v!
0t!
#237908
0q!
#237947
0n!
0m!
1l!
#238211
1E!
#238270
18!
15!
#238421
08!
#238687
1A!
#240000
0#
0$
0%
1>
#240979
0C!
#240999
03!
0;!
#241022
06
#241043
04
#241097
0D!
#241112
0<!
#241117
04!
#241237
01
#241364
0-
#241387
1,
#241428
0.
#245000
1#
1$
1%
0>
#245979
1C!
#245999
13!
1;!
#246097
1D!
#246112
1<!
#246117
14!
#247888
1v!
#247908
1r!
#247947
1n!
#248211
0E!
#248231
0A!
#248270
05!
#248366
1J!
#248421
18!
#248681
1=!
#250000
0#
0$
0%
1>
#250979
0C!
#250999
03!
0;!
#251022
16
#251097
0D!
#251112
0<!
#251114
12
#251117
04!
#251428
1.
#255000
1#
1$
1%
0>
#255979
1C!
#255999
13!
1;!
#256097
1D!
#256112
1<!
#256117
14!
#257888
0v!
1u!
#257908
1q!
0r!
#257947
0n!
1m!
#258211
0J!
1E!
#258231
1A!
0=!
#258270
08!
15!
#258366
1J!
#258421
18!
#258687
0A!
#260000
0#
0$
0%
1>
#260979
0C!
#260999
03!
0;!
#261022
06
15
#261097
0D!
#261112
0<!
#261114
02
#261117
04!
#261237
11
#261364
1-
#261428
0.
#265000
1#
1$
1%
0>
#265979
1C!
#265999
13!
1;!
#266097
1D!
#266112
1<!
#266117
14!
#267888
1v!
#267908
0q!
#267947
1n!
#268211
0E!
#268270
05!
#268366
1H!
0J!
#268421
08!
#268687
1A!
#268695
19!
#268696
0:!
#270000
0#
0$
0%
1>
#270979
0C!
#270999
03!
0;!
#271022
16
#271097
0D!
#271112
0<!
#271117
04!
#271237
01
#271428
1.
#275000
1#
1$
1%
0>
#275979
1C!
#275999
13!
1;!
#276097
1D!
#276112
1<!
#276117
14!
#277888
0v!
1t!
0u!
#277908
1r!
#277947
0n!
0m!
1k!
0l!
#278211
1J!
0H!
1E!
#278231
0A!
#278270
18!
15!
#278366
1H!
0J!
#278421
08!
#278681
1=!
#280000
0#
0$
0%
1>
#280979
0C!
#280999
03!
0;!
#281022
06
05
#281043
14
#281097
0D!
#281112
0<!
#281114
12
#281117
04!
#281364
0-
#281387
0,
#281428
0.
#281636
1+
#285000
1#
1$
1%
0>
#285979
1C!
#285999
13!
1;!
#286097
1D!
#286112
1<!
#286117
14!
#287888
1v!
#287908
1q!
0r!
#287947
1n!
#288211
0E!
#288231
1A!
0=!
#288270
05!
#288366
0H!
#288687
0A!
#288695
09!
#290000
0#
0$
0%
1>
#290979
0C!
#290999
03!
0;!
#291022
16
#291097
0D!
#291112
0<!
#291114
02
#291117
04!
#291237
11
#291428
1.
#295000
1#
1$
1%
0>
#295979
1C!
#295999
13!
1;!
#296097
1D!
#296112
1<!
#296117
14!
#297888
0v!
0t!
#297908
0q!
#297947
0n!
0k!
#298211
1E!
#298270
15!
#298687
1A!
#300000
0#
0$
0%
1>
#300979
0C!
#300999
03!
0;!
#301022
06
#301043
04
#301097
0D!
#301112
0<!
#301117
04!
#301237
01
#301428
0.
#301636
0+
#305000
1#
1$
1%
0>
#305979
1C!
#305999
13!
1;!
#306097
1D!
#306112
1<!
#306117
14!
#307888
1v!
#307908
1r!
#307947
1n!
#308211
0E!
#308231
0A!
#308270
05!
#308366
1J!
#308421
18!
#308681
1=!
#310000
0#
0$
0%
1>
#310979
0C!
#310999
03!
0;!
#311022
16
#311097
0D!
#311112
0<!
#311114
12
#311117
04!
#311428
1.
#315000
1#
1$
1%
0>
#315979
1C!
#315999
13!
1;!
#316097
1D!
#316112
1<!
#316117
14!
#317888
0v!
1u!
#317908
1q!
0r!
#317947
0n!
1m!
#318211
0J!
1E!
#318231
1A!
0=!
#318270
08!
15!
#318366
1J!
#318421
18!
#318687
0A!
#320000
0#
0$
0%
1>
#320979
0C!
#320999
03!
0;!
#321022
06
15
#321097
0D!
#321112
0<!
#321114
02
#321117
04!
#321237
11
#321364
1-
#321428
0.
#325000
1#
1$
1%
0>
#325979
1C!
#325999
13!
1;!
#326097
1D!
#326112
1<!
#326117
14!
#327888
1v!
#327908
0q!
#327947
1n!
#328211
0E!
#328270
05!
#328366
1H!
0J!
#328421
08!
#328687
1A!
#328696
1:!
#330000
0#
0$
0%
1>
#330979
0C!
#330999
03!
0;!
#331022
16
#331097
0D!
#331112
0<!
#331117
04!
#331237
01
#331428
1.
#335000
1#
1$
1%
0>
#335979
1C!
#335999
13!
1;!
#336097
1D!
#336112
1<!
#336117
14!
#337888
0v!
1t!
0u!
#337908
1r!
#337947
0n!
0m!
1l!
#338211
1J!
0H!
1E!
#338231
0A!
#338270
18!
15!
#338366
1H!
0J!
#338421
08!
#338681
1=!
#340000
0#
0$
0%
1>
#340979
0C!
#340999
03!
0;!
#341022
06
05
#341043
14
#341097
0D!
#341112
0<!
#341114
12
#341117
04!
#341364
0-
#341387
1,
#341428
0.
#345000
1#
1$
1%
0>
#345979
1C!
#345999
13!
1;!
#346097
1D!
#346112
1<!
#346117
14!
#347888
1v!
#347908
1q!
0r!
#347947
1n!
#348211
0E!
#348231
1A!
0=!
#348270
05!
#348366
0H!
#348421
18!
#348687
0A!
#350000
0#
0$
0%
1>
#350979
0C!
#350999
03!
0;!
#351022
16
#351097
0D!
#351112
0<!
#351114
02
#351117
04!
#351237
11
#351428
1.
#355000
1#
1$
1%
0>
#355979
1C!
#355999
13!
1;!
#356097
1D!
#356112
1<!
#356117
14!
#357888
0v!
0t!
#357908
0q!
#357947
0n!
1m!
#358211
1E!
#358270
08!
15!
#358421
18!
#358687
1A!
#360000
0#
0$
0%
1>
#360979
0C!
#360999
03!
0;!
#361022
06
#361043
04
#361097
0D!
#361112
0<!
#361117
04!
#361237
01
#361364
1-
#361428
0.
#365000
1#
1$
1%
0>
#365979
1C!
#365999
13!
1;!
#366097
1D!
#366112
1<!
#366117
14!
#367888
1v!
#367908
1r!
#367947
1n!
#368211
0E!
#368231
0A!
#368270
05!
#368366
1J!
#368421
08!
#368681
1=!
#368695
19!
#368696
0:!
#370000
0#
0$
0%
1>
#370979
0C!
#370999
03!
0;!
#371022
16
#371097
0D!
#371112
0<!
#371114
12
#371117
04!
#371428
1.
#375000
1#
1$
1%
0>
#375979
1C!
#375999
13!
1;!
#376097
1D!
#376112
1<!
#376117
14!
#377888
0v!
1u!
#377908
1q!
0r!
#377947
0n!
0m!
1k!
0l!
#378211
0J!
1E!
#378231
1A!
0=!
#378270
18!
15!
#378366
1J!
#378421
08!
#378687
0A!
#380000
0#
0$
0%
1>
#380979
0C!
#380999
03!
0;!
#381022
06
15
#381097
0D!
#381112
0<!
#381114
02
#381117
04!
#381237
11
#381364
0-
#381387
0,
#381428
0.
#381636
1+
#385000
1#
1$
1%
0>
#385979
1C!
#385999
13!
1;!
#386097
1D!
#386112
1<!
#386117
14!
#387888
1v!
#387908
0q!
#387947
1n!
#388211
0E!
#388270
05!
#388366
1H!
0J!
#388687
1A!
#388695
09!
#390000
0#
0$
0%
1>
#390979
0C!
#390999
03!
0;!
#391022
16
#391097
0D!
#391112
0<!
#391117
04!
#391237
01
#391428
1.
#395000
1#
1$
1%
0>
#395979
1C!
#395999
13!
1;!
#396097
1D!
#396112
1<!
#396117
14!
#397888
0v!
1t!
0u!
#397908
1r!
#397947
0n!
0k!
#398211
1J!
0H!
1E!
#398231
0A!
#398270
15!
#398366
1H!
0J!
#398681
1=!
#400000
0#
0$
0%
1>
#400979
0C!
#400999
03!
0;!
#401022
06
05
#401043
14
#401097
0D!
#401112
0<!
#401114
12
#401117
04!
#401428
0.
#401636
0+
#405000
1#
1$
1%
0>
#405979
1C!
#405999
13!
1;!
#406097
1D!
#406112
1<!
#406117
14!
#407888
1v!
#407908
1q!
0r!
#407947
1n!
#408211
0E!
#408231
1A!
0=!
#408270
05!
#408366
0H!
#408421
18!
#408687
0A!
#410000
0#
0$
0%
1>
#410979
0C!
#410999
03!
0;!
#411022
16
#411097
0D!
#411112
0<!
#411114
02
#411117
04!
#411237
11
#411428
1.
#415000
1#
1$
1%
0>
#415979
1C!
#415999
13!
1;!
#416097
1D!
#416112
1<!
#416117
14!
#417888
0v!
0t!
#417908
0q!
#417947
0n!
1m!
#418211
1E!
#418270
08!
15!
#418421
18!
#418687
1A!
#420000
0#
0$
0%
1>
#420979
0C!
#420999
03!
0;!
#421022
06
#421043
04
#421097
0D!
#421112
0<!
#421117
04!
#421237
01
#421364
1-
#421428
0.
#425000
1#
1$
1%
0>
#425979
1C!
#425999
13!
1;!
#426097
1D!
#426112
1<!
#426117
14!
#427888
1v!
#427908
1r!
#427947
1n!
